{
  "extends": ["tslint:recommended", "tslint-react"],
  "rules": {
    "no-console": [false],
    "indent": [
      true,
      "spaces",
      4
    ],
    "variable-name": {
      "options": [
        "ban-keywords",
        "check-format",
        "allow-pascal-case",
        "allow-leading-underscore"
      ]
    }
  }
}
